…
# Resulting tibble
twenty_prot_quan_data
#> # A tibble: 800 × 8
#>    Protein_ID Pep_N Match_N Condition Replicate  Temp rel_quantity raw_quantity
#>    <chr>      <dbl>   <dbl> <chr>     <chr>     <int>        <dbl>        <dbl>
#>  1 Protein_A     29      42 Control   01           37       1          1401047.
#>  2 Protein_A     29      42 Control   01           41       1.05       1464157.
#>  3 Protein_A     29      42 Control   01           44       1.06       1485400.
#>  4 Protein_A     29      42 Control   01           47       1.12       1568061.
#>  5 Protein_A     29      42 Control   01           50       1.35       1889459 
#>  6 Protein_A     29      42 Control   01           53       1.29       1801219.
#>  7 Protein_A     29      42 Control   01           56       0.450       630379.
#>  8 Protein_A     29      42 Control   01           59       0.116       162054.
#>  9 Protein_A     29      42 Control   01           63       0.0945      132437.
#> 10 Protein_A     29      42 Control   01           67       0.166       232101.
#> # ℹ 790 more rows
```
…
<img src="man/figures/README-example_normalisation-1.png"
style="width:100.0%" />

Resulting in the normalised data:

``` r
# Plotted melting data points
plot_melt(twenty_prot_normalised)
#> # A tibble: 800 × 9
#>    Condition Replicate  Temp Protein_ID Pep_N Match_N rel_quantity raw_quantity
#>    <chr>     <chr>     <int> <chr>      <dbl>   <dbl>        <dbl>        <dbl>
#>  1 Control   01           37 Protein_A     29      42            1     1401047.
#>  2 Control   01           37 Protein_B     23      39            1    18637136 
#>  3 Control   01           37 Protein_C     36      62            1     7913466.
#>  4 Control   01           37 Protein_D     76     108            1     1695097.
#>  5 Control   01           37 Protein_T     19      29            1     5209475 
#>  6 Control   01           37 Protein_Q     14      17            1     2789951.
#>  7 Control   01           37 Protein_N     19      35            1      997140.
#>  8 Control   01           37 Protein_K     13      15            1     6945545 
#>  9 Control   01           37 Protein_H     14      26            1     2126099 
#> 10 Control   01           37 Protein_E     10      12            1      351740.
#> # ℹ 790 more rows
#> # ℹ 1 more variable: norm_coefficient <dbl>
```
…
<img src="man/figures/README-example_analysis-1.png" width="100%" />

All statistics are appended as new measurements to the *tibble*:

``` r
# Full table
twenty_prot_analysed
#> # A tibble: 800 × 25
#>    Protein_ID Condition Replicate  Temp Pep_N Match_N rel_quantity raw_quantity
#>    <chr>      <chr>     <chr>     <int> <dbl>   <dbl>        <dbl>        <dbl>
#>  1 Protein_A  Control   01           37    29      42       1          1401047.
#>  2 Protein_A  Control   01           47    29      42       1.15       1568061.
#>  3 Protein_A  Control   01           50    29      42       1.30       1889459 
#>  4 Protein_A  Control   01           59    29      42       0.0904      162054.
#>  5 Protein_A  Control   01           67    29      42       0.166       232101.
#>  6 Protein_A  Control   01           53    29      42       1.23       1801219.
#>  7 Protein_A  Control   01           56    29      42       0.450       630379.
#>  8 Protein_A  Control   01           44    29      42       1.03       1485400.
#>  9 Protein_A  Control   01           63    29      42       0.131       132437.
#> 10 Protein_A  Control   01           41    29      42       0.999      1464157.
#> # ℹ 790 more rows
#> # ℹ 17 more variables: norm_coefficient <dbl>, F_scaled <dbl>,
#> #   p_adj_NPARC <dbl>, a <dbl>, b <dbl>, plateau <dbl>, melt_point <dbl>,
#> #   infl_point <dbl>, slope <dbl>, R_sq <dbl>, Comparison <chr>,
#> #   diff_melt_point <dbl>, min_comparison_slope <dbl>, min_R_sq <dbl>,
#> #   min_slope <dbl>, max_control_plateau <dbl>, adj_pvalue <dbl>
…
